go(-15150,95)
go(-15143,104)
teleport(27755,228)
go(-13321,-1353)
go(-13308,-1333)
go(-13297,-1301)
go(-13278,-1287)
go(-13272,-1276)
go(-13242,-1262)
go(-13215,-1241)
go(-13181,-1220)
go(-13156,-1209)
go(-13114,-1193)
go(-13088,-1177)
go(-13067,-1158)
go(-13029,-1140)
go(-13044,-1125)
go(-13073,-1098)
go(-13097,-1073)
go(-13102,-1042)
go(-13083,-1017)
go(-13073,-992)
go(-13057,-977)
go(-13033,-970)
go(-13012,-956)
go(-12983,-952)
go(-12947,-953)
go(-12914,-946)
go(-12876,-950)
go(-12845,-946)
go(-12823,-934)
go(-12799,-909)
go(-12783,-886)
go(-12774,-872)
go(-12758,-854)
go(-12751,-857)

